[
  {
    "_id": 1,
    "name": "Margharita",
    "description": "ser, szynka, pieczarki, cebula",
    "type": "Pizza",
    "imageUrl": "img/pizza1.jpg",
    "price": 2.5
  },
  {
    "_id": 2,
    "name": "Favorita",
    "description": "ser, szynka, pomidor, kukurydza",
    "type": "Pizza",
    "imageUrl": "img/pizza2.jpg",
    "price": 3.25
  },
  {
    "_id": 3,
    "name": "Bosmańska",
    "description": "ser, kukurydza, tuńczyk",
    "type": "Pizza",
    "imageUrl": "img/pizza3.jpg",
    "price": 4.2
  },
  {
    "_id": 4,
    "name": "Wegetariańska",
    "description": "ser, pieczarki, kukurydza, groszek, papryka",
    "type": "Pizza",
    "imageUrl": "img/pizza4.jpg",
    "price": 5.5
  },
  {
    "_id": 5,
    "name": "Pikantna",
    "description": "ser, pieczarki, cebula, groszek, papryka, kiełbasa",
    "type": "Pizza",
    "imageUrl": "img/pizza5.jpg",
    "price": 5
  },
  {
    "_id": 6,
    "name": "Tropikalna",
    "description": "ser, szynka, ananas, brzoskwinia, banan",
    "type": "Pizza",
    "imageUrl": "img/pizza6.jpg",
    "price": 2.5
  },
  {
    "_id": 7,
    "name": "Wiejska",
    "description": "ser, kukurydza, kiełbasa, boczek",
    "type": "Pizza",
    "imageUrl": "img/pizza7.jpg",
    "price": 3
  },
  {
    "_id": 8,
    "name": "Quatro",
    "description": "cztery rodzaje sera",
    "type": "Pizza",
    "imageUrl": "img/pizza8.jpg",
    "price": 2.5
  },
  {
    "_id": 9,
    "name": "Salami",
    "description": "ser, pieczarki, salami",
    "type": "Pizza",
    "imageUrl": "img/pizza9.jpg",
    "price": 2.5
  },
  {
    "_id": 10,
    "name": "Frutti Di Mare",
    "description": "ser, tuńczyk, owoce morza, oliwki",
    "type": "Pizza",
    "imageUrl": "img/pizza10.jpg",
    "price": 2.5
  },
  {
    "_id": 11,
    "name": "Connpollo",
    "description": "ser, cebula, kukurydza, papryka, kurczak",
    "type": "Pizza",
    "imageUrl": "img/pizza11.jpg",
    "price": 2.5
  },
  {
    "_id": 12,
    "name": "Lasagna",
    "description": "lasagna mięsna",
    "type": "Makarony",
    "imageUrl": "img/pasta1.jpg",
    "price": 2.5
  },
  {
    "_id": 13,
    "name": "Fetuccine Con Pollo",
    "description": "fetuccine z kurczakiem w sosie kremowo - pomidorowym",
    "type": "Makarony",
    "imageUrl": "img/lasagne1.jpg",
    "price": 3.5
  },
  {
    "_id": 14,
    "name": "Pepsi / 7up / Mirinda",
    "description": "0.3l",
    "type": "Napoje",
    "imageUrl": "img/drink1.jpg",
    "price": 1.5
  },
  {
    "_id": 15,
    "name": "Lipton Ice Tea 0,5L",
    "description": "Lemon Tea, Peach Tea, Green Tea, Green Tea Mango, Red Tea",
    "type": "Napoje",
    "imageUrl": "img/drink2.jpg",
    "price": 1.5
  },
  {
    "_id": 16,
    "name": "Woda mineralna",
    "description": "gazowana lub niegazowana 0.5l",
    "type": "Napoje",
    "imageUrl": "img/drink3.jpg",
    "price": 0.5
  }
]